%YAML 1.1
%TAG !u! tag:unity3d.com,2011:
--- !u!29 &1
OcclusionCullingSettings:
  m_ObjectHideFlags: 0
  serializedVersion: 2
  m_OcclusionBakeSettings:
    smallestOccluder: 5
    smallestHole: 0.25
    backfaceThreshold: 100
  m_SceneGUID: 00000000000000000000000000000000
  m_OcclusionCullingData: {fileID: 0}
--- !u!104 &2
RenderSettings:
  m_ObjectHideFlags: 0
  serializedVersion: 9
  m_Fog: 0
  m_FogColor: {r: 0.5, g: 0.5, b: 0.5, a: 1}
  m_FogMode: 3
  m_FogDensity: 0.01
  m_LinearFogStart: 0
  m_LinearFogEnd: 300
  m_AmbientSkyColor: {r: 0.212, g: 0.227, b: 0.259, a: 1}
  m_AmbientEquatorColor: {r: 0.114, g: 0.125, b: 0.133, a: 1}
  m_AmbientGroundColor: {r: 0.047, g: 0.043, b: 0.035, a: 1}
  m_AmbientIntensity: 1
  m_AmbientMode: 3
  m_SubtractiveShadowColor: {r: 0.42, g: 0.478, b: 0.627, a: 1}
  m_SkyboxMaterial: {fileID: 0}
  m_HaloStrength: 0.5
  m_FlareStrength: 1
  m_FlareFadeSpeed: 3
  m_HaloTexture: {fileID: 0}
  m_SpotCookie: {fileID: 10001, guid: 0000000000000000e000000000000000, type: 0}
  m_DefaultReflectionMode: 0
  m_DefaultReflectionResolution: 128
  m_ReflectionBounces: 1
  m_ReflectionIntensity: 1
  m_CustomReflection: {fileID: 0}
  m_Sun: {fileID: 0}
  m_IndirectSpecularColor: {r: 0, g: 0, b: 0, a: 1}
  m_UseRadianceAmbientProbe: 0
--- !u!157 &3
LightmapSettings:
  m_ObjectHideFlags: 0
  serializedVersion: 12
  m_GIWorkflowMode: 1
  m_GISettings:
    serializedVersion: 2
    m_BounceScale: 1
    m_IndirectOutputScale: 1
    m_AlbedoBoost: 1
    m_EnvironmentLightingMode: 0
    m_EnableBakedLightmaps: 0
    m_EnableRealtimeLightmaps: 0
  m_LightmapEditorSettings:
    serializedVersion: 12
    m_Resolution: 2
    m_BakeResolution: 40
    m_AtlasSize: 1024
    m_AO: 0
    m_AOMaxDistance: 1
    m_CompAOExponent: 1
    m_CompAOExponentDirect: 0
    m_ExtractAmbientOcclusion: 0
    m_Padding: 2
    m_LightmapParameters: {fileID: 0}
    m_LightmapsBakeMode: 1
    m_TextureCompression: 1
    m_FinalGather: 0
    m_FinalGatherFiltering: 1
    m_FinalGatherRayCount: 256
    m_ReflectionCompression: 2
    m_MixedBakeMode: 2
    m_BakeBackend: 1
    m_PVRSampling: 1
    m_PVRDirectSampleCount: 32
    m_PVRSampleCount: 512
    m_PVRBounces: 2
    m_PVREnvironmentSampleCount: 256
    m_PVREnvironmentReferencePointCount: 2048
    m_PVRFilteringMode: 1
    m_PVRDenoiserTypeDirect: 1
    m_PVRDenoiserTypeIndirect: 1
    m_PVRDenoiserTypeAO: 1
    m_PVRFilterTypeDirect: 0
    m_PVRFilterTypeIndirect: 0
    m_PVRFilterTypeAO: 0
    m_PVREnvironmentMIS: 1
    m_PVRCulling: 1
    m_PVRFilteringGaussRadiusDirect: 1
    m_PVRFilteringGaussRadiusIndirect: 5
    m_PVRFilteringGaussRadiusAO: 2
    m_PVRFilteringAtrousPositionSigmaDirect: 0.5
    m_PVRFilteringAtrousPositionSigmaIndirect: 2
    m_PVRFilteringAtrousPositionSigmaAO: 1
    m_ExportTrainingData: 0
    m_TrainingDataDestination: TrainingData
    m_LightProbeSampleCountMultiplier: 4
  m_LightingDataAsset: {fileID: 0}
  m_LightingSettings: {fileID: 0}
--- !u!196 &4
NavMeshSettings:
  serializedVersion: 2
  m_ObjectHideFlags: 0
  m_BuildSettings:
    serializedVersion: 2
    agentTypeID: 0
    agentRadius: 0.5
    agentHeight: 2
    agentSlope: 45
    agentClimb: 0.4
    ledgeDropHeight: 0
    maxJumpAcrossDistance: 0
    minRegionArea: 2
    manualCellSize: 0
    cellSize: 0.16666667
    manualTileSize: 0
    tileSize: 256
    accuratePlacement: 0
    maxJobWorkers: 0
    preserveTilesOutsideBounds: 0
    debug:
      m_Flags: 0
  m_NavMeshData: {fileID: 0}
--- !u!1001 &4894404927266219115
PrefabInstance:
  m_ObjectHideFlags: 0
  serializedVersion: 2
  m_Modification:
    m_TransformParent: {fileID: 0}
    m_Modifications:
    - target: {fileID: 548809316836459917, guid: 1e54cac0c6662d84ba4a1f619b354947, type: 3}
      propertyPath: m_LocalPosition.z
      value: -10
      objectReference: {fileID: 0}
    - target: {fileID: 1472406398912295331, guid: 1e54cac0c6662d84ba4a1f619b354947, type: 3}
      propertyPath: m_IsActive
      value: 0
      objectReference: {fileID: 0}
    - target: {fileID: 2403599830815404896, guid: 1e54cac0c6662d84ba4a1f619b354947, type: 3}
      propertyPath: m_LocalPosition.z
      value: -10
      objectReference: {fileID: 0}
    - target: {fileID: 2837805493033192889, guid: 1e54cac0c6662d84ba4a1f619b354947, type: 3}
      propertyPath: m_Volume
      value: 0.7
      objectReference: {fileID: 0}
    - target: {fileID: 4894404927642166785, guid: 1e54cac0c6662d84ba4a1f619b354947, type: 3}
      propertyPath: m_RootOrder
      value: 0
      objectReference: {fileID: 0}
    - target: {fileID: 4894404927642166785, guid: 1e54cac0c6662d84ba4a1f619b354947, type: 3}
      propertyPath: m_LocalEulerAnglesHint.x
      value: 0
      objectReference: {fileID: 0}
    - target: {fileID: 4894404927642166785, guid: 1e54cac0c6662d84ba4a1f619b354947, type: 3}
      propertyPath: m_LocalEulerAnglesHint.y
      value: 0
      objectReference: {fileID: 0}
    - target: {fileID: 4894404927642166785, guid: 1e54cac0c6662d84ba4a1f619b354947, type: 3}
      propertyPath: m_LocalEulerAnglesHint.z
      value: 0
      objectReference: {fileID: 0}
    - target: {fileID: 4894404927642166787, guid: 1e54cac0c6662d84ba4a1f619b354947, type: 3}
      propertyPath: m_Name
      value: GameManager
      objectReference: {fileID: 0}
    - target: {fileID: 6586095043605107680, guid: 1e54cac0c6662d84ba4a1f619b354947, type: 3}
      propertyPath: m_IsActive
      value: 0
      objectReference: {fileID: 0}
    - target: {fileID: 7957115840431600069, guid: 1e54cac0c6662d84ba4a1f619b354947, type: 3}
      propertyPath: textureTransition.Array.size
      value: 5
      objectReference: {fileID: 0}
    - target: {fileID: 7957115840431600069, guid: 1e54cac0c6662d84ba4a1f619b354947, type: 3}
      propertyPath: textureTransition.Array.data[0]
      value: 
      objectReference: {fileID: 2800000, guid: d864a022a353bac47b72c9142b1f6d4b, type: 3}
    - target: {fileID: 7957115840431600069, guid: 1e54cac0c6662d84ba4a1f619b354947, type: 3}
      propertyPath: textureTransition.Array.data[1]
      value: 
      objectReference: {fileID: 2800000, guid: 54eeafab4e58f4349b49643a7843b7e6, type: 3}
    - target: {fileID: 7957115840431600069, guid: 1e54cac0c6662d84ba4a1f619b354947, type: 3}
      propertyPath: textureTransition.Array.data[2]
      value: 
      objectReference: {fileID: 2800000, guid: a4b343e9fd0b2a5409153eabfe655ee7, type: 3}
    - target: {fileID: 7957115840431600069, guid: 1e54cac0c6662d84ba4a1f619b354947, type: 3}
      propertyPath: textureTransition.Array.data[3]
      value: 
      objectReference: {fileID: 2800000, guid: 8d9d2af841cda234291f066b756faaca, type: 3}
    - target: {fileID: 7957115840431600069, guid: 1e54cac0c6662d84ba4a1f619b354947, type: 3}
      propertyPath: textureTransition.Array.data[4]
      value: 
      objectReference: {fileID: 2800000, guid: a74191ab62bfeee40bab948dbafb1ca4, type: 3}
    m_RemovedComponents:
    - {fileID: 3860665342790656362, guid: 1e54cac0c6662d84ba4a1f619b354947, type: 3}
    - {fileID: 6187107304111489472, guid: 1e54cac0c6662d84ba4a1f619b354947, type: 3}
  m_SourcePrefab: {fileID: 100100000, guid: 1e54cac0c6662d84ba4a1f619b354947, type: 3}
