%YAML 1.1
%TAG !u! tag:unity3d.com,2011:
--- !u!181963792 &2655988077585873504
Preset:
  m_ObjectHideFlags: 0
  m_CorrespondingSourceObject: {fileID: 0}
  m_PrefabInstance: {fileID: 0}
  m_PrefabAsset: {fileID: 0}
  m_Name: STM_Skullboy
  m_TargetType:
    m_NativeTypeID: 114
    m_ManagedTypePPtr: {fileID: 11500000, guid: 0ffcfb6d0266347848bf69a03919f483, type: 3}
    m_ManagedTypeFallback: 
  m_Properties:
  - target: {fileID: 0}
    propertyPath: m_Enabled
    value: 1
    objectReference: {fileID: 0}
  - target: {fileID: 0}
    propertyPath: m_EditorHideFlags
    value: 0
    objectReference: {fileID: 0}
  - target: {fileID: 0}
    propertyPath: m_EditorClassIdentifier
    value: 
    objectReference: {fileID: 0}
  - target: {fileID: 0}
    propertyPath: showTextFoldout
    value: 1
    objectReference: {fileID: 0}
  - target: {fileID: 0}
    propertyPath: showAppearanceFoldout
    value: 1
    objectReference: {fileID: 0}
  - target: {fileID: 0}
    propertyPath: showMaterialFoldout
    value: 1
    objectReference: {fileID: 0}
  - target: {fileID: 0}
    propertyPath: showPositionFoldout
    value: 1
    objectReference: {fileID: 0}
  - target: {fileID: 0}
    propertyPath: showTimingFoldout
    value: 0
    objectReference: {fileID: 0}
  - target: {fileID: 0}
    propertyPath: showFunctionalityFoldout
    value: 0
    objectReference: {fileID: 0}
  - target: {fileID: 0}
    propertyPath: showAudioFoldout
    value: 0
    objectReference: {fileID: 0}
  - target: {fileID: 0}
    propertyPath: showEventFoldout
    value: 0
    objectReference: {fileID: 0}
  - target: {fileID: 0}
    propertyPath: showBetaFoldout
    value: 0
    objectReference: {fileID: 0}
  - target: {fileID: 0}
    propertyPath: info.Array.size
    value: 0
    objectReference: {fileID: 0}
  - target: {fileID: 0}
    propertyPath: _text
    value: 
    objectReference: {fileID: 0}
  - target: {fileID: 0}
    propertyPath: drawText
    value: 
    objectReference: {fileID: 0}
  - target: {fileID: 0}
    propertyPath: hyphenedText
    value: 
    objectReference: {fileID: 0}
  - target: {fileID: 0}
    propertyPath: font
    value: 
    objectReference: {fileID: 12800000, guid: 5f476137cb2a14f728c644d081f47ea6, type: 2}
  - target: {fileID: 0}
    propertyPath: _color32.rgba
    value: 4294967295
    objectReference: {fileID: 0}
  - target: {fileID: 0}
    propertyPath: _color.r
    value: 0
    objectReference: {fileID: 0}
  - target: {fileID: 0}
    propertyPath: _color.g
    value: 0
    objectReference: {fileID: 0}
  - target: {fileID: 0}
    propertyPath: _color.b
    value: 0
    objectReference: {fileID: 0}
  - target: {fileID: 0}
    propertyPath: _color.a
    value: 1
    objectReference: {fileID: 0}
  - target: {fileID: 0}
    propertyPath: forceAnimation
    value: 0
    objectReference: {fileID: 0}
  - target: {fileID: 0}
    propertyPath: richText
    value: 1
    objectReference: {fileID: 0}
  - target: {fileID: 0}
    propertyPath: readDelay
    value: 0
    objectReference: {fileID: 0}
  - target: {fileID: 0}
    propertyPath: speedReadScale
    value: 2
    objectReference: {fileID: 0}
  - target: {fileID: 0}
    propertyPath: ignoreTimeScale
    value: 1
    objectReference: {fileID: 0}
  - target: {fileID: 0}
    propertyPath: disableAnimatedText
    value: 0
    objectReference: {fileID: 0}
  - target: {fileID: 0}
    propertyPath: drawAnimName
    value: Appear
    objectReference: {fileID: 0}
  - target: {fileID: 0}
    propertyPath: unreadDelay
    value: 0.05
    objectReference: {fileID: 0}
  - target: {fileID: 0}
    propertyPath: undrawOrder
    value: 1
    objectReference: {fileID: 0}
  - target: {fileID: 0}
    propertyPath: undrawAnimName
    value: Appear
    objectReference: {fileID: 0}
  - target: {fileID: 0}
    propertyPath: audioSource
    value: 
    objectReference: {fileID: 0}
  - target: {fileID: 0}
    propertyPath: audioClips.Array.size
    value: 0
    objectReference: {fileID: 0}
  - target: {fileID: 0}
    propertyPath: stopPreviousSound
    value: 1
    objectReference: {fileID: 0}
  - target: {fileID: 0}
    propertyPath: pitchMode
    value: 0
    objectReference: {fileID: 0}
  - target: {fileID: 0}
    propertyPath: overridePitch
    value: 1
    objectReference: {fileID: 0}
  - target: {fileID: 0}
    propertyPath: minPitch
    value: 0.9
    objectReference: {fileID: 0}
  - target: {fileID: 0}
    propertyPath: maxPitch
    value: 1.2
    objectReference: {fileID: 0}
  - target: {fileID: 0}
    propertyPath: speedReadPitch
    value: 0
    objectReference: {fileID: 0}
  - target: {fileID: 0}
    propertyPath: perlinPitchMulti
    value: 1
    objectReference: {fileID: 0}
  - target: {fileID: 0}
    propertyPath: reading
    value: 0
    objectReference: {fileID: 0}
  - target: {fileID: 0}
    propertyPath: unreading
    value: 0
    objectReference: {fileID: 0}
  - target: {fileID: 0}
    propertyPath: size
    value: 16
    objectReference: {fileID: 0}
  - target: {fileID: 0}
    propertyPath: bestFitMulti
    value: 1
    objectReference: {fileID: 0}
  - target: {fileID: 0}
    propertyPath: quality
    value: 16
    objectReference: {fileID: 0}
  - target: {fileID: 0}
    propertyPath: filterMode
    value: 0
    objectReference: {fileID: 0}
  - target: {fileID: 0}
    propertyPath: maskMode
    value: 0
    objectReference: {fileID: 0}
  - target: {fileID: 0}
    propertyPath: style
    value: 0
    objectReference: {fileID: 0}
  - target: {fileID: 0}
    propertyPath: baseOffset.x
    value: 0
    objectReference: {fileID: 0}
  - target: {fileID: 0}
    propertyPath: baseOffset.y
    value: 4
    objectReference: {fileID: 0}
  - target: {fileID: 0}
    propertyPath: baseOffset.z
    value: 0
    objectReference: {fileID: 0}
  - target: {fileID: 0}
    propertyPath: relativeBaseOffset
    value: 0
    objectReference: {fileID: 0}
  - target: {fileID: 0}
    propertyPath: lineSpacing
    value: 1
    objectReference: {fileID: 0}
  - target: {fileID: 0}
    propertyPath: characterSpacing
    value: 0
    objectReference: {fileID: 0}
  - target: {fileID: 0}
    propertyPath: tabSize
    value: 4
    objectReference: {fileID: 0}
  - target: {fileID: 0}
    propertyPath: autoWrap
    value: 12
    objectReference: {fileID: 0}
  - target: {fileID: 0}
    propertyPath: uiWrap
    value: 1
    objectReference: {fileID: 0}
  - target: {fileID: 0}
    propertyPath: uiLimit
    value: 1
    objectReference: {fileID: 0}
  - target: {fileID: 0}
    propertyPath: breakText
    value: 0
    objectReference: {fileID: 0}
  - target: {fileID: 0}
    propertyPath: insertHyphens
    value: 0
    objectReference: {fileID: 0}
  - target: {fileID: 0}
    propertyPath: anchor
    value: 0
    objectReference: {fileID: 0}
  - target: {fileID: 0}
    propertyPath: alignment
    value: 0
    objectReference: {fileID: 0}
  - target: {fileID: 0}
    propertyPath: verticalLimit
    value: 0
    objectReference: {fileID: 0}
  - target: {fileID: 0}
    propertyPath: verticalLimitMode
    value: 2
    objectReference: {fileID: 0}
  - target: {fileID: 0}
    propertyPath: leftoverText
    value: 
    objectReference: {fileID: 0}
  - target: {fileID: 0}
    propertyPath: textMaterial
    value: 
    objectReference: {fileID: 2100000, guid: e490a80c3724140c0ad176edb075a09e, type: 2}
  - target: {fileID: 0}
    propertyPath: textMesh
    value: 
    objectReference: {fileID: 0}
  - target: {fileID: 0}
    propertyPath: rawTopLeftBounds.x
    value: 146
    objectReference: {fileID: 0}
  - target: {fileID: 0}
    propertyPath: rawTopLeftBounds.y
    value: -46
    objectReference: {fileID: 0}
  - target: {fileID: 0}
    propertyPath: rawTopLeftBounds.z
    value: 0
    objectReference: {fileID: 0}
  - target: {fileID: 0}
    propertyPath: rawBottomRightBounds.x
    value: -146
    objectReference: {fileID: 0}
  - target: {fileID: 0}
    propertyPath: rawBottomRightBounds.y
    value: 46
    objectReference: {fileID: 0}
  - target: {fileID: 0}
    propertyPath: rawBottomRightBounds.z
    value: 0
    objectReference: {fileID: 0}
  - target: {fileID: 0}
    propertyPath: rawBottomRightTextBounds.x
    value: 0
    objectReference: {fileID: 0}
  - target: {fileID: 0}
    propertyPath: rawBottomRightTextBounds.y
    value: 0
    objectReference: {fileID: 0}
  - target: {fileID: 0}
    propertyPath: rawBottomRightTextBounds.z
    value: 0
    objectReference: {fileID: 0}
  - target: {fileID: 0}
    propertyPath: topLeftBounds.x
    value: -9.125
    objectReference: {fileID: 0}
  - target: {fileID: 0}
    propertyPath: topLeftBounds.y
    value: -5
    objectReference: {fileID: 0}
  - target: {fileID: 0}
    propertyPath: topLeftBounds.z
    value: 90
    objectReference: {fileID: 0}
  - target: {fileID: 0}
    propertyPath: topRightBounds.x
    value: 9.125
    objectReference: {fileID: 0}
  - target: {fileID: 0}
    propertyPath: topRightBounds.y
    value: -5
    objectReference: {fileID: 0}
  - target: {fileID: 0}
    propertyPath: topRightBounds.z
    value: 90
    objectReference: {fileID: 0}
  - target: {fileID: 0}
    propertyPath: bottomLeftBounds.x
    value: -9.125
    objectReference: {fileID: 0}
  - target: {fileID: 0}
    propertyPath: bottomLeftBounds.y
    value: -10.75
    objectReference: {fileID: 0}
  - target: {fileID: 0}
    propertyPath: bottomLeftBounds.z
    value: 90
    objectReference: {fileID: 0}
  - target: {fileID: 0}
    propertyPath: bottomRightBounds.x
    value: 9.125
    objectReference: {fileID: 0}
  - target: {fileID: 0}
    propertyPath: bottomRightBounds.y
    value: -10.75
    objectReference: {fileID: 0}
  - target: {fileID: 0}
    propertyPath: bottomRightBounds.z
    value: 90
    objectReference: {fileID: 0}
  - target: {fileID: 0}
    propertyPath: centerBounds.x
    value: 0
    objectReference: {fileID: 0}
  - target: {fileID: 0}
    propertyPath: centerBounds.y
    value: -7.875
    objectReference: {fileID: 0}
  - target: {fileID: 0}
    propertyPath: centerBounds.z
    value: 90
    objectReference: {fileID: 0}
  - target: {fileID: 0}
    propertyPath: topLeftTextBounds.x
    value: 0
    objectReference: {fileID: 0}
  - target: {fileID: 0}
    propertyPath: topLeftTextBounds.y
    value: 0
    objectReference: {fileID: 0}
  - target: {fileID: 0}
    propertyPath: topLeftTextBounds.z
    value: 0
    objectReference: {fileID: 0}
  - target: {fileID: 0}
    propertyPath: topRightTextBounds.x
    value: 0
    objectReference: {fileID: 0}
  - target: {fileID: 0}
    propertyPath: topRightTextBounds.y
    value: 0
    objectReference: {fileID: 0}
  - target: {fileID: 0}
    propertyPath: topRightTextBounds.z
    value: 0
    objectReference: {fileID: 0}
  - target: {fileID: 0}
    propertyPath: bottomLeftTextBounds.x
    value: 0
    objectReference: {fileID: 0}
  - target: {fileID: 0}
    propertyPath: bottomLeftTextBounds.y
    value: 0
    objectReference: {fileID: 0}
  - target: {fileID: 0}
    propertyPath: bottomLeftTextBounds.z
    value: 0
    objectReference: {fileID: 0}
  - target: {fileID: 0}
    propertyPath: bottomRightTextBounds.x
    value: 0
    objectReference: {fileID: 0}
  - target: {fileID: 0}
    propertyPath: bottomRightTextBounds.y
    value: 0
    objectReference: {fileID: 0}
  - target: {fileID: 0}
    propertyPath: bottomRightTextBounds.z
    value: 0
    objectReference: {fileID: 0}
  - target: {fileID: 0}
    propertyPath: centerTextBounds.x
    value: 0
    objectReference: {fileID: 0}
  - target: {fileID: 0}
    propertyPath: centerTextBounds.y
    value: 0
    objectReference: {fileID: 0}
  - target: {fileID: 0}
    propertyPath: centerTextBounds.z
    value: 0
    objectReference: {fileID: 0}
  - target: {fileID: 0}
    propertyPath: finalTopLeftTextBounds.x
    value: 0
    objectReference: {fileID: 0}
  - target: {fileID: 0}
    propertyPath: finalTopLeftTextBounds.y
    value: 0
    objectReference: {fileID: 0}
  - target: {fileID: 0}
    propertyPath: finalTopLeftTextBounds.z
    value: 0
    objectReference: {fileID: 0}
  - target: {fileID: 0}
    propertyPath: finalTopRightTextBounds.x
    value: 0
    objectReference: {fileID: 0}
  - target: {fileID: 0}
    propertyPath: finalTopRightTextBounds.y
    value: 0
    objectReference: {fileID: 0}
  - target: {fileID: 0}
    propertyPath: finalTopRightTextBounds.z
    value: 0
    objectReference: {fileID: 0}
  - target: {fileID: 0}
    propertyPath: finalBottomLeftTextBounds.x
    value: 0
    objectReference: {fileID: 0}
  - target: {fileID: 0}
    propertyPath: finalBottomLeftTextBounds.y
    value: 0
    objectReference: {fileID: 0}
  - target: {fileID: 0}
    propertyPath: finalBottomLeftTextBounds.z
    value: 0
    objectReference: {fileID: 0}
  - target: {fileID: 0}
    propertyPath: finalBottomRightTextBounds.x
    value: 0
    objectReference: {fileID: 0}
  - target: {fileID: 0}
    propertyPath: finalBottomRightTextBounds.y
    value: 0
    objectReference: {fileID: 0}
  - target: {fileID: 0}
    propertyPath: finalBottomRightTextBounds.z
    value: 0
    objectReference: {fileID: 0}
  - target: {fileID: 0}
    propertyPath: finalCenterTextBounds.x
    value: 0
    objectReference: {fileID: 0}
  - target: {fileID: 0}
    propertyPath: finalCenterTextBounds.y
    value: 0
    objectReference: {fileID: 0}
  - target: {fileID: 0}
    propertyPath: finalCenterTextBounds.z
    value: 0
    objectReference: {fileID: 0}
  - target: {fileID: 0}
    propertyPath: unwrappedBottomRightTextBounds.x
    value: 0
    objectReference: {fileID: 0}
  - target: {fileID: 0}
    propertyPath: unwrappedBottomRightTextBounds.y
    value: 0
    objectReference: {fileID: 0}
  - target: {fileID: 0}
    propertyPath: unwrappedBottomRightTextBounds.z
    value: 0
    objectReference: {fileID: 0}
  - target: {fileID: 0}
    propertyPath: onCompleteEvent.m_PersistentCalls.m_Calls.Array.size
    value: 0
    objectReference: {fileID: 0}
  - target: {fileID: 0}
    propertyPath: onUndrawnEvent.m_PersistentCalls.m_Calls.Array.size
    value: 0
    objectReference: {fileID: 0}
  - target: {fileID: 0}
    propertyPath: onRebuildEvent.m_PersistentCalls.m_Calls.Array.size
    value: 0
    objectReference: {fileID: 0}
  - target: {fileID: 0}
    propertyPath: onPrintEvent.m_PersistentCalls.m_Calls.Array.size
    value: 0
    objectReference: {fileID: 0}
  - target: {fileID: 0}
    propertyPath: onCustomEvent.m_PersistentCalls.m_Calls.Array.size
    value: 0
    objectReference: {fileID: 0}
  - target: {fileID: 0}
    propertyPath: onVertexMod.m_PersistentCalls.m_Calls.Array.size
    value: 0
    objectReference: {fileID: 0}
  - target: {fileID: 0}
    propertyPath: onPreParse.m_PersistentCalls.m_Calls.Array.size
    value: 0
    objectReference: {fileID: 0}
  - target: {fileID: 0}
    propertyPath: debugMode
    value: 0
    objectReference: {fileID: 0}
  - target: {fileID: 0}
    propertyPath: totalReadTime
    value: 0.00001
    objectReference: {fileID: 0}
  - target: {fileID: 0}
    propertyPath: totalUnreadTime
    value: 0.00001
    objectReference: {fileID: 0}
  - target: {fileID: 0}
    propertyPath: currentReadTime
    value: 0.00001
    objectReference: {fileID: 0}
  - target: {fileID: 0}
    propertyPath: autoRead
    value: 1
    objectReference: {fileID: 0}
  - target: {fileID: 0}
    propertyPath: rememberReadPosition
    value: 1
    objectReference: {fileID: 0}
  - target: {fileID: 0}
    propertyPath: autoQuality
    value: 0
    objectReference: {fileID: 0}
  - target: {fileID: 0}
    propertyPath: drawOrder
    value: 0
    objectReference: {fileID: 0}
  - target: {fileID: 0}
    propertyPath: rtl
    value: 0
    objectReference: {fileID: 0}
  - target: {fileID: 0}
    propertyPath: bestFit
    value: 0
    objectReference: {fileID: 0}
  - target: {fileID: 0}
    propertyPath: latestNumber
    value: 11
    objectReference: {fileID: 0}
  - target: {fileID: 0}
    propertyPath: currentUnReadTime
    value: 0
    objectReference: {fileID: 0}
  - target: {fileID: 0}
    propertyPath: preParsedText
    value: 
    objectReference: {fileID: 0}
  m_ExcludedProperties: []
